{
    "CEO":["takorn@dittothailand.com"],
    "TAKORN":["takorn@dittothailand.com"],
    "CFO":["chaithad@dittothailand.com"],
    "CHAITHAD":["chaithad@dittothailand.com"],
    "accountant approver":["nathaya@dittothailand.com","naphaporn@dittothailand.com"],
    "accountant oper":[],
    "payment":["achawan@dittothailand.com","maythamas@dittothailand.com","sirada.mak@dittothailand.com"],
    "sadmin":["apiwit.the@dittothailand.com"],
    "Aim":["apiwit.theeraporn@gmail.com","ex_aim@outlook.com"]
}